{
  "flat": [
    {
      "name": "Intel Pentium (processor / Intel) - Some description stuff",
      "price": "4999CZK",
      "params": "sn: 879843265716054, speed: 5GHz,"
    },
    {
      "name": "Seagate (ssd / Ironwolf) - Some description stuff",
      "price": "8000CZK",
      "params": "capacity: 8000GB, sn: 1489526870535645,"
    },
    {
      "name": "Corsair memory (memory / Corsair) - Some description stuff",
      "price": "8410CZK",
      "params": "capacity: 2x16GB, sn: 1489526889755645,"
    },
    {
      "name": "nVidia (graphic card / nVidia) - Some description stuff",
      "price": "2500CZK",
      "params": "sn: 1489526889755645, model: xxx,"
    },
    {
      "name": "židle ( / ) - Spinalis",
      "price": "34000CZK",
      "params": []
    },
    {
      "name": "monitor ( / ) - Dell",
      "price": "380EUR",
      "params": []
    }
  ],
  "sorted": [
    "Corsair memory",
    "Intel Pentium",
    "Seagate",
    "nVidia",
    "monitor",
    "židle"
  ],
  "sorted2": [
    "Corsair memory",
    "Intel Pentium",
    "monitor",
    "nVidia",
    "Seagate",
    "židle"
  ],
  "filtered_by_price": [
    "Intel Pentium - 4999",
    "nVidia - 2500",
    "monitor - 380"
  ],
  "filtered_by_char": [
    "Seagate",
    "Corsair memory",
    "nVidia"
  ],
  "filtered_by_char_extended": [
    "Intel Pentium",
    "Corsair memory",
    "nVidia",
    "židle",
    "monitor"
  ]
}